<?xml version="1.0" encoding="UTF-8" standalone="no"?>
<svg
   xmlns:dc="http://purl.org/dc/elements/1.1/"
   xmlns:cc="http://creativecommons.org/ns#"
   xmlns:rdf="http://www.w3.org/1999/02/22-rdf-syntax-ns#"
   xmlns:svg="http://www.w3.org/2000/svg"
   xmlns="http://www.w3.org/2000/svg"
   xmlns:sodipodi="http://sodipodi.sourceforge.net/DTD/sodipodi-0.dtd"
   xmlns:inkscape="http://www.inkscape.org/namespaces/inkscape"
   inkscape:version="1.0 (4035a4fb49, 2020-05-01)"
   height="32"
   width="32"
   sodipodi:docname="load_from_repo.svg"
   xml:space="preserve"
   viewBox="0 0 32 31.999999"
   y="0px"
   x="0px"
   id="Layer_1"
   version="1.1"><metadata
   id="metadata17"><rdf:RDF><cc:Work
       rdf:about=""><dc:format>image/svg+xml</dc:format><dc:type
         rdf:resource="http://purl.org/dc/dcmitype/StillImage" /><dc:title></dc:title></cc:Work></rdf:RDF></metadata><defs
   id="defs15">
	

		
	
			
		<marker
   inkscape:stockid="TriangleOutS"
   orient="auto"
   refY="0"
   refX="0"
   id="TriangleOutS"
   style="overflow:visible"
   inkscape:isstock="true"><path
     id="path970"
     d="M 5.77,0 -2.88,5 V -5 Z"
     style="fill:#ffffff;fill-opacity:1;fill-rule:evenodd;stroke:#ffffff;stroke-width:1pt;stroke-opacity:1"
     transform="scale(0.2)" /></marker></defs><sodipodi:namedview
   inkscape:current-layer="Layer_1"
   inkscape:window-maximized="1"
   inkscape:window-y="0"
   inkscape:window-x="0"
   inkscape:cy="19.987639"
   inkscape:cx="22.014644"
   inkscape:zoom="17.910447"
   fit-margin-bottom="0"
   fit-margin-right="0"
   fit-margin-left="0"
   fit-margin-top="0"
   showgrid="false"
   id="namedview13"
   inkscape:window-height="1006"
   inkscape:window-width="1920"
   inkscape:pageshadow="2"
   inkscape:pageopacity="0"
   guidetolerance="10"
   gridtolerance="10"
   objecttolerance="10"
   borderopacity="1"
   bordercolor="#666666"
   pagecolor="#000000" />
<style
   id="style2"
   type="text/css">
	.st0{fill-rule:evenodd;clip-rule:evenodd;fill:#F1615F;}
</style>
<path
   d="M 16.105469 0.88476562 C 7.7022633 0.88476563 0.91015625 7.7173591 0.91015625 16.078125 C 0.91015625 17.144076 1.0224596 18.184027 1.2304688 19.1875 C 1.6343647 18.486608 2.0345751 17.783458 2.4414062 17.083984 C 2.4172525 16.750705 2.390625 16.417658 2.390625 16.078125 C 2.390625 8.5321364 8.5211762 2.3652344 16.105469 2.3652344 C 23.651457 2.3652344 29.818359 8.4938322 29.818359 16.078125 C 29.818359 23.624113 23.689762 29.791016 16.105469 29.791016 C 13.53226 29.791016 11.135947 29.072196 9.0800781 27.84375 C 9.0782463 28.410903 9.0760473 28.977769 9.0742188 29.544922 C 11.176823 30.642814 13.565337 31.271484 16.105469 31.271484 C 24.508675 31.271484 31.298828 24.438891 31.298828 16.078125 C 31.298828 7.6749195 24.466235 0.88476562 16.105469 0.88476562 z "
   style="fill:#ffffff;fill-opacity:1;stroke-width:0.424406"
   id="path870" />
<path
   id="path846"
   d="M 9.261441,7.5334726 8.8747308,6.9664113 8.9518305,6.4880849 C 9.0170419,6.0835086 9.0650629,5.9371845 9.2632933,5.5390531 9.4812309,5.1013394 9.5166106,5.0554781 9.7680718,4.8847148 10.323663,4.5074195 11.558395,3.989517 12.647659,3.676884 c 0.699274,-0.2006997 1.16166,-0.2847924 1.16166,-0.2112681 0,0.02252 -0.04783,0.2083209 -0.106305,0.412894 -0.07248,0.2536215 -0.116176,0.5507698 -0.137314,0.9340508 -0.02831,0.5131513 -0.03915,0.566177 -0.1246,0.6089071 -0.05147,0.025742 -0.682788,0.3661078 -1.402914,0.7563655 L 10.728867,6.8873922 10.441689,7.3972728 C 10.160731,7.8961088 10.149581,7.9089925 9.9269657,7.9920448 9.8018204,8.0387328 9.6878864,8.0822498 9.673788,8.0887338 9.659688,8.0952038 9.4741352,7.8453563 9.2614449,7.5334719 Z"
   style="fill:#ffffff;fill-opacity:1;stroke-width:0.0997396;stroke-linecap:square;stroke-linejoin:bevel" /><path
   id="path848"
   d="M 3.6068667,12.871026 C 3.6033144,12.746959 3.8460985,11.961008 4.0481596,11.442501 4.6217509,9.9706067 5.538513,8.4934885 6.6043891,7.3238132 6.9760577,6.9159497 7.3342368,6.5772295 7.3609545,6.6083497 c 0.00812,0.00939 0.1738551,0.4958981 0.3683357,1.0810195 L 8.0828897,8.753225 7.7740071,9.1188 C 7.6041205,9.3198651 7.4292783,9.5298874 7.3854685,9.5855139 7.3198128,9.6688809 7.1805871,9.713051 6.5934047,9.8368208 6.2015801,9.9194151 5.8732278,9.9947566 5.8637341,10.004251 c -0.00951,0.0095 0.1505375,0.169602 0.355627,0.355796 l 0.372889,0.338535 -0.1325548,0.359509 c -0.0729,0.197729 -0.1517884,0.371395 -0.1752977,0.385925 -0.023509,0.01453 -0.34397,0.07153 -0.712137,0.126668 -0.3681668,0.05514 -0.7139156,0.12827 -0.7683318,0.16251 -0.207037,0.130277 -1.0049286,0.874901 -1.0982118,1.024896 -0.053679,0.0863 -0.09816,0.137122 -0.098845,0.112927 z"
   style="fill:#ffffff;fill-opacity:1;stroke-width:0.0997396;stroke-linecap:square;stroke-linejoin:bevel" /><path
   id="path850"
   d="M 8.0416567,10.578667 7.7058317,10.4724 7.6747864,10.182522 c -0.017076,-0.159433 -0.014387,-0.3037815 0.00596,-0.3207755 0.02035,-0.017 0.1886711,-0.1641712 0.3740474,-0.3270609 C 8.24017,9.3717972 8.4008014,9.2542563 8.4117516,9.2734861 c 0.010911,0.019234 0.066214,0.2782344 0.1227984,0.5755672 0.1012558,0.5320607 0.1015856,0.5430077 0.020959,0.6927247 -0.045052,0.08366 -0.1035394,0.150103 -0.1299743,0.147641 -0.026427,-0.0025 -0.1991722,-0.0523 -0.3838773,-0.110747 z"
   style="fill:#ffffff;fill-opacity:1;stroke-width:0.0997396;stroke-linecap:square;stroke-linejoin:bevel" /><path
   id="path852"
   d="m 13.471112,7.3597202 c -0.199331,-0.097856 -0.226033,-0.1263888 -0.210757,-0.2252074 0.0096,-0.062243 0.0291,-0.1873782 0.04331,-0.2780923 l 0.02584,-0.1649335 h 0.583084 0.583084 l 0.04486,0.2189717 0.04486,0.218973 -0.222223,0.073813 c -0.122215,0.040599 -0.321575,0.1176221 -0.443008,0.1711693 l -0.220786,0.097361 z"
   style="fill:#ffffff;fill-opacity:1;stroke-width:0.0997396;stroke-linecap:square;stroke-linejoin:bevel" /><path
   id="path854"
   d="m 19.247263,27.35431 c -0.163141,-0.376896 -0.298295,-0.655024 -0.460928,-0.948525 -0.132608,-0.239313 -0.189593,-0.405236 -0.226584,-0.659737 -0.02717,-0.187009 -0.08905,-0.591412 -0.137481,-0.898676 -0.09684,-0.6144 -0.102283,-0.568065 0.150249,-1.280295 l 0.152999,-0.431518 -0.154999,-0.426142 C 18.448768,22.37469 18.388591,22.090254 18.289997,21.38347 L 18.164472,20.483664 17.933117,20.2475 c -0.435241,-0.444289 -0.344307,-0.426188 -1.24822,-0.248451 l -0.786417,0.154634 -0.699529,-0.07807 -0.69953,-0.07807 -0.550205,-0.660426 C 13.646603,18.973882 13.373182,18.646113 13.341612,18.60874 13.310042,18.57137 13.231678,18.190641 13.16746,17.762684 l -0.116747,-0.778106 0.419264,-0.495409 c 0.230595,-0.272476 0.535429,-0.629086 0.677409,-0.792468 0.160309,-0.184474 0.399372,-0.557112 0.630773,-0.983216 0.226654,-0.41736 0.407086,-0.699416 0.460591,-0.720007 0.04837,-0.01863 0.404638,-0.118663 0.791685,-0.222324 0.387045,-0.103654 0.723649,-0.215553 0.74801,-0.248656 0.03716,-0.05049 0.163007,-0.05156 0.781469,-0.0066 l 0.737178,0.05358 0.27403,0.473564 0.274031,0.473564 0.346583,0.09351 c 0.594322,0.160365 0.569957,0.162613 1.122055,-0.10354 l 0.500863,-0.241448 0.526876,0.150217 0.526876,0.150214 0.591292,-0.08247 c 0.325213,-0.04536 0.614027,-0.105202 0.641812,-0.132983 0.05034,-0.05034 0.304726,-0.847297 0.278745,-0.873278 -0.0075,-0.0075 -0.298643,-0.03363 -0.64695,-0.05804 -1.079606,-0.07567 -0.960986,-0.028 -1.200554,-0.482371 -0.113993,-0.216194 -0.221012,-0.400569 -0.237827,-0.409718 -0.01681,-0.0091 -0.0949,8.27e-4 -0.173516,0.02214 l -0.142945,0.03878 v 0.394586 c 0,0.217021 -0.0049,0.394284 -0.01103,0.393918 -0.0061,-3.53e-4 -0.09678,-0.02633 -0.201615,-0.05767 -0.186849,-0.05589 -0.19824,-0.07071 -0.576073,-0.749936 -0.3806,-0.6842 -0.389,-0.695064 -0.66704,-0.862726 -0.154872,-0.09339 -0.288058,-0.151838 -0.295968,-0.129883 -0.0079,0.02196 0.05642,0.286795 0.142943,0.588531 0.08652,0.301737 0.157251,0.574255 0.157156,0.605595 -1.31e-4,0.05085 -0.394494,0.404919 -0.419241,0.376421 -0.0056,-0.0063 -0.08423,-0.268859 -0.174911,-0.583334 -0.09067,-0.314475 -0.171636,-0.579474 -0.179906,-0.588886 -0.02074,-0.02361 -1.214558,-0.356463 -1.279051,-0.356616 -0.02865,-8.8e-5 -0.226168,0.238484 -0.43895,0.530114 l -0.386874,0.530236 -0.493276,0.263121 -0.493278,0.263122 -0.364102,-0.04565 c -0.200257,-0.02511 -0.370073,-0.04566 -0.377369,-0.04566 -0.03384,0 0.05095,-1.212682 0.08641,-1.235894 0.02216,-0.0145 0.242968,-0.06111 0.490681,-0.103578 l 0.450386,-0.0772 0.204815,-0.232308 c 0.229874,-0.260728 0.229192,-0.224014 0.01462,-0.787815 -0.06355,-0.167002 -0.110353,-0.308344 -0.103983,-0.314095 0.0063,-0.0057 0.391843,-0.259311 0.856625,-0.5634663 l 0.845056,-0.5530132 0.870261,-0.060137 0.87026,-0.060137 0.307877,-0.1751484 0.307878,-0.1751454 V 8.3934443 8.0119002 L 20.489321,7.7756338 C 20.692025,7.6456875 20.840467,7.52948 20.819189,7.5173955 20.797913,7.5053424 20.528155,7.4497859 20.219728,7.3940135 19.911301,7.3382408 19.65895,7.272395 19.65895,7.2476907 c 0,-0.024702 0.07917,-0.3070647 0.175931,-0.6274709 0.09676,-0.3204051 0.17535,-0.5987359 0.174641,-0.6185113 -7.1e-4,-0.019779 -0.06207,-0.1028036 -0.136334,-0.1845047 L 19.738144,5.6686582 19.391397,6.0133705 19.04465,6.358084 l 0.02831,1.0683298 0.02831,1.0683294 h -0.331201 -0.331195 l -0.0558,-0.1992725 C 18.338235,8.1353177 18.269534,8.046376 18.033133,7.8424059 17.871352,7.70282 17.552474,7.4722611 17.324512,7.3300527 17.09655,7.1878444 16.902455,7.0658185 16.893188,7.0588838 c -0.0093,-0.00698 0.04392,-0.081832 0.118206,-0.1664345 0.07428,-0.084598 0.494741,-0.6988243 0.934351,-1.3649338 l 0.799292,-1.2111054 h 0.545735 0.545737 l 0.845843,0.5661289 c 0.746338,0.4995304 0.999781,0.715985 0.999781,0.8538708 0,0.011545 -0.08412,0.042895 -0.186925,0.069678 -0.320833,0.083583 -0.320304,0.098617 0.01346,0.381671 0.169785,0.1439935 0.3366,0.2618059 0.3707,0.2618059 0.0743,0 0.545001,-0.3770846 0.549007,-0.4398249 0.01408,-0.2204802 0.41754,-0.1309791 1.493864,0.3313896 0.933693,0.4010975 0.985013,0.436261 1.616718,1.1077435 1.90151,2.0212446 3.183791,4.9440101 3.35326,7.6432491 0.0205,0.32657 0.03452,0.59694 0.03116,0.600824 -0.0033,0.004 -0.312899,-0.03719 -0.687849,-0.09127 l -0.681729,-0.09834 -0.6235,-0.314231 -0.623501,-0.31423 -0.222028,0.09763 c -0.122113,0.0537 -0.217592,0.108107 -0.212167,0.12092 0.0054,0.01281 0.184514,0.190138 0.397978,0.39405 l 0.388117,0.370744 0.26586,-0.06926 0.265859,-0.06926 0.300061,0.136576 c 0.265816,0.120984 0.310992,0.159921 0.395874,0.341145 0.05271,0.112509 0.08849,0.22495 0.07955,0.249859 -0.009,0.0249 -0.288564,0.300823 -0.621376,0.613142 l -0.605114,0.567853 -0.560421,0.117267 c -0.308234,0.0645 -0.600008,0.127854 -0.648388,0.14079 -0.06889,0.01843 -0.11048,-0.0173 -0.19185,-0.16483 -0.05713,-0.103589 -0.301013,-0.517926 -0.541945,-0.920742 -0.43312,-0.724134 -0.444034,-0.737637 -0.96791,-1.197624 l -0.529852,-0.465231 -0.16977,0.120058 c -0.09338,0.06602 -0.170195,0.134834 -0.170712,0.152899 -5.12e-4,0.01807 0.156043,0.305051 0.347907,0.637746 0.191866,0.332695 0.4838,0.862198 0.648742,1.176673 l 0.299896,0.571772 0.58159,0.296028 0.581591,0.296029 0.270021,-0.08404 c 0.248614,-0.07738 0.281379,-0.07862 0.413283,-0.01572 l 0.143263,0.06832 -0.269164,0.563087 -0.269163,0.563088 -0.70372,0.625227 c -0.387045,0.343875 -0.778673,0.69232 -0.870283,0.774322 -0.158521,0.141894 -0.170843,0.172919 -0.255189,0.642538 -0.102333,0.569767 -0.327595,1.542109 -0.394526,1.702964 -0.02518,0.06048 -0.218835,0.237444 -0.430381,0.393265 -0.355095,0.261551 -0.402785,0.315588 -0.621071,0.703718 -0.614874,1.093289 -0.753365,1.276016 -1.443073,1.904016 -0.356191,0.324321 -0.769018,0.702108 -0.917394,0.839523 -0.202582,0.187621 -0.302433,0.249849 -0.400906,0.249849 -0.07212,0 -0.18263,0.04051 -0.245573,0.09001 l -0.114437,0.09001 z"
   style="fill:#ffffff;fill-opacity:1;stroke-width:0.0997396;stroke-linecap:square;stroke-linejoin:bevel" /><path
   id="path856"
   d="m 15.43667,10.135851 c 0,-0.02214 0.04904,-0.2074569 0.10897,-0.411832 L 15.654609,9.3524266 15.527543,8.956584 C 15.457662,8.7388709 15.389826,8.4298487 15.376811,8.2698682 l -0.02366,-0.2908746 0.250684,0.098122 c 0.137876,0.053971 0.283519,0.1093247 0.323652,0.1230268 0.07559,0.025793 0.652742,1.0696214 0.652742,1.1805269 0,0.056521 -0.234255,0.3002148 -0.593763,0.6176725 -0.132146,0.1166832 -0.549781,0.2211512 -0.549781,0.1375152 z"
   style="fill:#ffffff;fill-opacity:1;stroke-width:0.0997396;stroke-linecap:square;stroke-linejoin:bevel" /><path
   id="path858"
   d="m 14.81316,9.3785036 -0.205675,-0.026072 0.117711,-0.2743648 c 0.08141,-0.1897597 0.141986,-0.2745272 0.196432,-0.2748901 0.08511,-5.519e-4 0.427076,0.1612543 0.427076,0.2020954 0,0.043035 -0.277527,0.4134788 -0.304336,0.4062243 -0.01404,-0.0038 -0.118079,-0.01865 -0.231208,-0.032986 z"
   style="fill:#ffffff;fill-opacity:1;stroke-width:0.0997396;stroke-linecap:square;stroke-linejoin:bevel" /><path
   id="path862"
   d="m 23.793341,24.320195 v -0.44204 l 0.340864,-0.423588 c 0.187476,-0.232974 0.355127,-0.429992 0.372558,-0.437819 0.01744,-0.0079 0.197837,-0.141422 0.400904,-0.296881 0.203065,-0.155458 0.378936,-0.282652 0.39082,-0.282652 0.01193,0 0.03432,0.136789 0.04986,0.303978 l 0.02826,0.303979 -0.285831,0.471369 c -0.157206,0.259254 -0.285831,0.486618 -0.285831,0.505253 0,0.01864 -0.227609,0.192859 -0.505798,0.387162 l -0.505799,0.353281 z"
   style="fill:#ffffff;fill-opacity:1;stroke-width:0.0997396;stroke-linecap:square;stroke-linejoin:bevel" /><path
   style="fill:#ffffff;fill-opacity:1;stroke:#ffffff;stroke-width:3.77953;stroke-linecap:butt;stroke-linejoin:miter;stroke-miterlimit:4;stroke-dasharray:none;stroke-opacity:1;marker-end:url(#TriangleOutS)"
   d="m 5.6964464,31.265784 v -11.5135"
   id="path820"
   inkscape:connector-curvature="0"
   sodipodi:nodetypes="cc" /></svg>
